{
  "type": "service_account",
  "project_id": "bimber-staging",
  "private_key_id": "50034875dae9e062e7356852be80ff523bf0ec3a",
  "private_key": "-----BEGIN PRIVATE KEY-----\nMIIEvAIBADANBgkqhkiG9w0BAQEFAASCBKYwggSiAgEAAoIBAQCZ0SGoBsV9t1Ee\ntPu0K+HGC9f2O0aDudOzYq7PkUKABwxXw9zV35CgZZuMGs2U1toLaZwavZOpsmXM\nHZs2Z0ZPkVLt6DOrumhs973eIAKgHVS6n688Zxhc2tTHJr1TwVW+0e8yDI1NgrnB\nrBzz2aYc3iX5qV8zCZ8PDTieauFmJ+2sRq+CD/kQF+2i7qUnd/7ztIHW5kDxneDH\nc5rsgiaBz4jfFdnlrkH6MzybQlbsMbI+iFmqbfOPt1E/GJI3LkldaPjbpIFp2LY2\nbcyX4Kx5+34L6vi2/HfTdt/lwNITaufhtWUN3zEuk0P8VVCcUWgL4Th0tjxGs8QW\naJqB5qzJAgMBAAECggEAORJIDxyoFUu5zQ9w3vpzNHT7hfCbas+9tW71lq16g59Z\n3IyfOTnQ4zqgGr1tLv8C+z4Nvjw9+DZpn/ESQH7ULzyoDP7dgSfSjC/l4m91GeyY\nHgCW1+4Ws4k8bsI4eEWhZ4JkYmkW2r4Y5zvRqEbG5Com4/oMiRbWThLlQZ49kJXH\nTDe6ifuXhyP+/ASyKzdCwVm4DUd/+eZVlO9E7t/dYkMKr31vYQYNb4j7JTtNZD49\njgKtcAk9WVC0SqbiPxa09f7rFS681qEDdaoAmZ6eccYIPh64RHe9sUfsL/9p4p0r\nkPWF1Dn5MGy+g7q70KXrerTAkOOqvtO8LPl4DZnr+wKBgQDXuig8UETCA794ed4T\nqFsjTKt2ED7wwlg8FAu1BxTbxhen7zwSBfhpSyWtnux6RXsyQNWsEwRu87ANbLcY\nVl6F5pw9W5/cp8CLXRzFR0nqTKw2Hh9fYlSv/SygyY48NNQOzXrterTf+5agLFJd\nDvyn8j6N2wY0FvhzAjFLO+YwVwKBgQC2iDbFlp4SUx+3cuDy8Wy2QE4WqsPJzviA\nOWvjtHQd01KMgN1zelq3yz9Ts4PTO80nGLx65Haob2PK/CCFO5PoMuQn8ODdUgLr\n2TYuCO3NS6axgXF6BNldcUzz155FRKPj2lcVfrY48FiuGpEn1EqbAQYwOoYsAejW\nym4jaJNX3wKBgGoj8KoEQGBJIcrwAyEe44CRt4cGZUFmDa25myz9h/i+FWOOJLsl\nbty3mZk8KVPbncrS9Y6NaNACXCuuwsNZs3YkSdkynIwfiW/IZ2B1O9voz45s8bin\nk81nPq75nF7pCzEhTotLpXTSv4CdbgTVW+ByIu7+xaWZa7KCcKh4l0BPAoGATxrF\nMehOZP6lNimRF3hNdsZzkRs8co9B3sAD49Dmqa5VjhKi5lLWUeTBcxLPRJIcHJ95\nv4CXc/OiOev+Y/8n4G99tVmM+h16qp+d/WFdPaVVfoPsm8bSNM7PXLXLH5XZuPt8\n1hHuAssWg4177tjv5DETb39NenDxaXSdOrctc90CgYAmSawub6p+olx+J5z+yFMV\nZa+qtD45rG8nKYGgZCg7rHZ75+Vb1dMGBbUC3wMTdnY1C4gMwoRaI2jt3UbUwHRB\n9Ks2SO8quW69Xh7HQCtcoV1ag2nA57M94RKDlqnGZzQf23624l2/yW2zJMNkI/EK\nhxgC1p/2ylTt/fst/BNH7Q==\n-----END PRIVATE KEY-----\n",
  "client_email": "firebase-adminsdk-y5d6s@bimber-staging.iam.gserviceaccount.com",
  "client_id": "102023906210200515517",
  "auth_uri": "https://accounts.google.com/o/oauth2/auth",
  "token_uri": "https://accounts.google.com/o/oauth2/token",
  "auth_provider_x509_cert_url": "https://www.googleapis.com/oauth2/v1/certs",
  "client_x509_cert_url": "https://www.googleapis.com/robot/v1/metadata/x509/firebase-adminsdk-y5d6s%40bimber-staging.iam.gserviceaccount.com"
}
